{
  "development": {
    "username": "SA",
    "password": "Qwerty@10",
    "database": "TestDB",
    "host": "localhost",
    "dialect": "mssql",
    "operatorsAliases": false,
    "pool": {
      "acquire": 120000
    },
    "logging": false
  },
  "test": {
    "username": "root",
    "password": null,
    "database": "database_test",
    "host": "127.0.0.1",
    "dialect": "mysql",
    "operatorsAliases": false
  },
  "production": {
    "username": "b57c6f0573f355",
    "password": "c88df621",
    "database": "heroku_ac1021700567b38",
    "host": "us-cdbr-east-06.cleardb.net",
    "dialect": "mysql",
    "operatorsAliases": false,
    "pool": {
      "acquire": 120000
    }
  }
}